module gitlab.com/connor13/bitrise-step-dependency-check

go 1.19

require (
	github.com/bitrise-io/go-steputils v1.0.3
	github.com/bitrise-io/go-steputils/v2 v2.0.0-alpha.15
	github.com/bitrise-io/go-utils/v2 v2.0.0-alpha.13
	golang.org/x/exp v0.0.0-20221114191408-850992195362
)

require (
	github.com/bitrise-io/go-utils v1.0.1 // indirect
	golang.org/x/text v0.3.7 // indirect
)
